digraph "FusionGL.Rendering.Mesh"
{
  edge [fontname="Helvetica",fontsize="10",labelfontname="Helvetica",labelfontsize="10"];
  node [fontname="Helvetica",fontsize="10",shape=record];
  Node1 [label="FusionGL.Rendering.Mesh",height=0.2,width=0.4,color="black", fillcolor="grey75", style="filled", fontcolor="black"];
  Node2 -> Node1 [dir="back",color="darkorchid3",fontsize="10",style="dashed",label=" MeshProxyDef" ,fontname="Helvetica"];
  Node2 [label="FusionGL.Rendering.IMesh\lProxy",height=0.2,width=0.4,color="black", fillcolor="white", style="filled",URL="$interface_fusion_g_l_1_1_rendering_1_1_i_mesh_proxy.html",tooltip="Describes how Mesh should be incorporated in renderer. "];
}
