digraph "FusionGL.Core.InputDevices.Mouse"
{
  edge [fontname="Helvetica",fontsize="10",labelfontname="Helvetica",labelfontsize="10"];
  node [fontname="Helvetica",fontsize="10",shape=record];
  Node1 [label="FusionGL.Core.InputDevices.\lMouse",height=0.2,width=0.4,color="black", fillcolor="grey75", style="filled", fontcolor="black"];
  Node2 -> Node1 [dir="back",color="midnightblue",fontsize="10",style="solid",fontname="Helvetica"];
  Node2 [label="IInputDevice",height=0.2,width=0.4,color="black", fillcolor="white", style="filled",URL="$interface_fusion_g_l_1_1_core_1_1_input_devices_1_1_i_input_device.html",tooltip="Describes input devices used by Input class. "];
}
