digraph "FusionGL.Rendering.Window.CreateWindow"
{
  edge [fontname="Helvetica",fontsize="10",labelfontname="Helvetica",labelfontsize="10"];
  node [fontname="Helvetica",fontsize="10",shape=record];
  rankdir="LR";
  Node1 [label="FusionGL.Rendering.Window.\lCreateWindow",height=0.2,width=0.4,color="black", fillcolor="grey75", style="filled", fontcolor="black"];
  Node1 -> Node2 [dir="back",color="midnightblue",fontsize="10",style="solid",fontname="Helvetica"];
  Node2 [label="FusionGL.Core.CoreEngine.\lCoreEngine",height=0.2,width=0.4,color="black", fillcolor="white", style="filled",URL="$class_fusion_g_l_1_1_core_1_1_core_engine.html#a4312cbc72d5f23def54a1f10d6e81c6d"];
}
