digraph "Graphical Class Hierarchy"
{
  edge [fontname="Helvetica",fontsize="10",labelfontname="Helvetica",labelfontsize="10"];
  node [fontname="Helvetica",fontsize="10",shape=record];
  rankdir="LR";
  Node1 [label="FusionGL.Core.ILivable",height=0.2,width=0.4,color="black", fillcolor="white", style="filled",URL="$interface_fusion_g_l_1_1_core_1_1_i_livable.html",tooltip="Describes living object handled by its hoster. "];
  Node1 -> Node2 [dir="back",color="midnightblue",fontsize="10",style="solid",fontname="Helvetica"];
  Node2 [label="FusionGL.Core.Component",height=0.2,width=0.4,color="black", fillcolor="white", style="filled",URL="$class_fusion_g_l_1_1_core_1_1_component.html",tooltip="Defines components used by entities. "];
  Node2 -> Node3 [dir="back",color="midnightblue",fontsize="10",style="solid",fontname="Helvetica"];
  Node3 [label="FusionGL.Core.ScriptHost.\lLuaScript",height=0.2,width=0.4,color="black", fillcolor="white", style="filled",URL="$class_fusion_g_l_1_1_core_1_1_script_host_1_1_lua_script.html",tooltip="Implements scripting via Lua language. "];
  Node1 -> Node4 [dir="back",color="midnightblue",fontsize="10",style="solid",fontname="Helvetica"];
  Node4 [label="FusionGL.Core.Entity",height=0.2,width=0.4,color="black", fillcolor="white", style="filled",URL="$class_fusion_g_l_1_1_core_1_1_entity.html",tooltip="Implements living entity handled by core engine. "];
  Node5 [label="FusionGL.Core.ComponentType.\lLogic.IScript",height=0.2,width=0.4,color="black", fillcolor="white", style="filled",URL="$interface_fusion_g_l_1_1_core_1_1_component_type_1_1_logic_1_1_i_script.html",tooltip="Describes embedded languages. "];
  Node5 -> Node3 [dir="back",color="midnightblue",fontsize="10",style="solid",fontname="Helvetica"];
}
