digraph "FusionGL.Core.InputDevices.IInputDevice"
{
  edge [fontname="Helvetica",fontsize="10",labelfontname="Helvetica",labelfontsize="10"];
  node [fontname="Helvetica",fontsize="10",shape=record];
  Node1 [label="FusionGL.Core.InputDevices.\lIInputDevice",height=0.2,width=0.4,color="black", fillcolor="grey75", style="filled", fontcolor="black"];
  Node1 -> Node2 [dir="back",color="midnightblue",fontsize="10",style="solid",fontname="Helvetica"];
  Node2 [label="FusionGL.Core.InputDevices.\lKeyboard",height=0.2,width=0.4,color="black", fillcolor="white", style="filled",URL="$class_fusion_g_l_1_1_core_1_1_input_devices_1_1_keyboard.html"];
  Node1 -> Node3 [dir="back",color="midnightblue",fontsize="10",style="solid",fontname="Helvetica"];
  Node3 [label="FusionGL.Core.InputDevices.\lMouse",height=0.2,width=0.4,color="black", fillcolor="white", style="filled",URL="$class_fusion_g_l_1_1_core_1_1_input_devices_1_1_mouse.html"];
}
