digraph "FusionGL.Core.Entity"
{
  edge [fontname="Helvetica",fontsize="10",labelfontname="Helvetica",labelfontsize="10"];
  node [fontname="Helvetica",fontsize="10",shape=record];
  Node1 [label="FusionGL.Core.Entity",height=0.2,width=0.4,color="black", fillcolor="grey75", style="filled", fontcolor="black"];
  Node2 -> Node1 [dir="back",color="midnightblue",fontsize="10",style="solid"];
  Node2 [label="ILivable",height=0.2,width=0.4,color="black", fillcolor="white", style="filled",URL="$interface_fusion_g_l_1_1_core_1_1_i_livable.html",tooltip="Describes living object handled by its hoster. "];
}
