digraph "FusionGL.Core.Transform.SetParentTransform"
{
  edge [fontname="Helvetica",fontsize="10",labelfontname="Helvetica",labelfontsize="10"];
  node [fontname="Helvetica",fontsize="10",shape=record];
  rankdir="LR";
  Node1 [label="FusionGL.Core.Transform.\lSetParentTransform",height=0.2,width=0.4,color="black", fillcolor="grey75", style="filled", fontcolor="black"];
  Node1 -> Node2 [color="midnightblue",fontsize="10",style="solid"];
  Node2 [label="FusionGL.Core.Transform.\lGetTransformation",height=0.2,width=0.4,color="black", fillcolor="white", style="filled",URL="$class_fusion_g_l_1_1_core_1_1_transform.html#abb623cbe096cc35a879947ffdf1a35d2"];
}
