digraph "FusionGL.Rendering.IMeshProxy.Draw"
{
  edge [fontname="Helvetica",fontsize="10",labelfontname="Helvetica",labelfontsize="10"];
  node [fontname="Helvetica",fontsize="10",shape=record];
  rankdir="LR";
  Node1 [label="FusionGL.Rendering.IMesh\lProxy.Draw",height=0.2,width=0.4,color="black", fillcolor="grey75", style="filled", fontcolor="black"];
  Node1 -> Node2 [dir="back",color="midnightblue",fontsize="10",style="solid"];
  Node2 [label="FusionGL.Rendering.Mesh.Draw",height=0.2,width=0.4,color="black", fillcolor="white", style="filled",URL="$class_fusion_g_l_1_1_rendering_1_1_mesh.html#ab39e909fd5256e9cd090452339aa0a51"];
}
